#HAKODATA
#VERSION
1
#POINT
101,101,101,101,101,101,101,101,
101,101,201,101,101,101,101,101,
101,101,0,0,0,9,101,101,
101,101,6,6,7,7,101,101,
101,101,3,3,4,4,101,101,
101,101,3,1,1,4,101,101,
101,101,0,0,1,0,101,101,
101,101,0,101,100,0,101,101,
101,101,202,202,100,100,101,101,
101,101,101,101,101,101,101,101,
#END
#TYPE
0,0,0,0,0,
0,3,0,1,0,
0,0,0,0,0,
0,0,0,0,0,
#END
#COUNT
0,0,0,0,0,
0,0,0,0,0,
0,0,0,0,0,
0,0,0,0,0,
#END
