#HAKODATA
#VERSION
1
#POINT
101,101,101,101,101,101,101,101,
101,101,3,100,100,2,101,101,
101,101,3,100,100,2,101,101,
101,101,16,5,4,4,101,101,
101,101,14,5,4,7,101,101,
101,101,9,9,8,8,101,101,
101,101,0,0,0,0,101,101,
101,101,101,200,200,101,101,101,
101,101,101,101,101,101,101,101,
101,101,101,101,101,101,101,101,
#END
#TYPE
0,0,0,0,0,
0,0,2,2,0,
0,0,0,0,0,
0,0,0,0,0,
#END
#COUNT
0,0,0,0,0,
0,0,4,5,0,
0,0,0,0,0,
0,0,0,0,0,
#END
