#HAKODATA
#VERSION
1
#POINT
101,101,101,101,101,101,101,101,
101,200,0,0,15,15,15,101,
101,0,0,0,14,15,0,101,
101,0,0,14,14,14,12,101,
101,9,9,9,10,10,12,101,
101,9,0,0,10,10,12,101,
101,1,1,13,0,4,4,101,
101,100,1,13,4,4,7,101,
101,100,1,0,0,0,7,101,
101,101,101,101,101,101,101,101,
#END
#TYPE
0,0,0,0,0,
0,0,0,0,1,
0,0,0,1,0,
0,0,0,0,0,
#END
#COUNT
0,0,0,0,0,
0,0,0,0,0,
0,0,0,0,0,
0,0,0,0,0,
#END
