#HAKODATA
#VERSION
1
#POINT
101,101,101,101,101,101,101,101,
101,0,0,9,9,0,0,101,
101,3,3,6,6,5,100,101,
101,3,7,7,7,5,100,101,
101,0,7,5,7,5,100,101,
101,0,7,5,5,5,0,101,
101,0,7,0,0,0,0,101,
101,101,101,101,200,101,101,101,
101,101,101,101,101,101,101,101,
101,101,101,101,101,101,101,101,
#END
#TYPE
0,0,0,0,0,
0,0,0,2,0,
0,0,0,0,0,
0,0,0,0,0,
#END
#COUNT
0,0,0,0,0,
0,0,0,3,0,
0,0,0,0,0,
0,0,0,0,0,
#END
