#HAKODATA
#VERSION
1
#POINT
101,101,101,101,101,101,101,101,
101,0,0,100,201,0,0,101,
101,14,14,202,202,202,0,101,
101,14,202,202,202,202,0,101,
101,14,7,202,202,202,0,101,
101,0,7,7,0,101,101,101,
101,0,7,4,12,12,12,101,
101,3,3,4,1,1,12,101,
101,0,3,4,0,1,1,101,
101,101,101,101,101,101,101,101,
#END
#TYPE
3,0,3,3,0,
0,0,0,0,0,
0,0,0,0,0,
0,0,0,0,0,
#END
#COUNT
0,0,0,0,0,
0,0,0,0,0,
0,0,0,0,0,
0,0,0,0,0,
#END
