#HAKODATA
#VERSION
1
#POINT
101,101,101,101,101,101,101,101,
101,200,0,0,101,101,101,101,
101,0,0,0,3,0,101,101,
101,7,0,100,0,0,101,101,
101,101,101,101,101,101,101,101,
101,2,3,0,101,101,101,101,
101,0,0,101,2,0,0,101,
101,101,0,101,0,0,0,101,
101,101,101,101,0,0,100,101,
101,101,101,101,101,101,101,101,
#END
#TYPE
0,1,1,0,0,
0,1,0,0,0,
0,0,0,0,0,
0,0,0,0,0,
#END
#COUNT
0,0,0,0,0,
0,0,0,0,0,
0,0,0,0,0,
0,0,0,0,0,
#END
