#HITDATA
#VERSION
1
#POINT
300,200
700,200
0,500
1000,500
700,800
300,800
0,1000
1000,1000
0,0
1000,0
#END
#LINE
8,0,0
0,1,2
1,9,2
1,3,2
3,4,2
4,7,0
4,5,0
5,6,2
5,2,0
2,0,0
#END
#ANSER
8,0,1,9,1,0,2,5,6,5,4,3,1,3,4,7,
#QUEST
0,0,0,0,0,0,0,0,0,0,0,0,0,0,0,0,
#END
