#HITDATA
#VERSION
1
#POINT
250,500
500,250
750,500
250,0
0,250
750,0
1000,250
500,750
750,1000
1000,750
250,1000
0,750
#END
#LINE
3,4,0
0,1,2
3,1,1
4,0,0
0,3,0
1,5,2
5,2,0
2,1,0
2,6,0
6,5,0
0,2,0
2,7,2
7,0,0
0,11,0
11,10,0
10,7,3
0,10,0
7,8,0
8,9,0
9,2,0
2,8,0
#END
#ANSER
3,1,5,2,6,5,1,2,0,1,0,3,4,0,11,10,7,0,10,7,2,9,8,2,7,8,
#QUEST
0,0,0,0,0,0,1,0,0,0,0,0,0,0,0,0,1,0,0,0,0,0,0,0,0,0,
#END
