#HITDATA
#VERSION
1
#POINT
500,14
380,137
620,137
258,258
742,258
137,380
863,380
620,380
380,380
500,500
500,258
258,500
14,500
742,500
986,500
258,14
137,137
742,14
863,137
863,620
137,620
258,742
742,742
620,620
500,742
380,620
380,863
137,863
258,986
500,986
620,863
863,863
742,986
#END
#LINE
1,0,0
0,2,0
2,10,0
10,1,0
1,3,0
10,7,0
8,10,0
2,4,0
4,6,0
6,13,0
1,15,0
15,16,0
16,3,0
17,2,0
17,18,0
18,4,0
3,5,0
5,12,2
3,8,0
4,7,0
7,13,0
6,14,2
7,9,0
8,9,0
8,11,0
11,5,0
12,20,2
20,21,0
21,25,0
25,24,0
24,23,0
23,22,0
22,19,0
19,14,2
27,21,0
27,28,0
28,26,0
26,29,0
29,30,0
30,32,0
32,31,0
31,22,0
22,30,0
24,30,0
24,26,0
21,26,0
#END
#ANSER
20,12,5,11,8,9,7,13,6,14,19,14,6,4,18,17,2,4,7,10,2,0,1,10,8,3,1,15,16,3,5,12,20,21,27,28,26,29,30,22,31,32,30,24,26,21,25,24,23,22,19,
#QUEST
0,0,0,0,0,0,0,1,0,0,0,0,0,0,0,0,0,0,0,0,0,0,0,0,0,0,0,0,0,0,0,0,0,0,0,1,0,0,0,0,0,0,0,0,0,0,0,0,0,0,0,
#END
