#HITDATA
#VERSION
1
#POINT
0,0
1000,0
500,500
0,1000
1000,1000
#END
#LINE
4,3,0
3,2,0
2,4,0
1,4,1
1,0,2
0,2,0
1,2,1
0,3,0
#END
#ANSER
3,0,1,2,0,1,4,2,3,4,
#QUEST
0,0,0,0,0,0,0,0,0,0,
#END
