#HITDATA
#VERSION
1
#POINT
244,99
396,100
400,216
331,388
244,388
479,320
498,620
373,500
377,720
556,942
621,880
714,760
920,910
863,986
711,945
561,711
587,581
240,57
276,46
319,37
359,37
397,50
432,612
391,644
347,675
387,305
430,290
471,280
623,789
648,761
683,728
#END
#LINE
0,1,0
2,1,0
2,3,0
3,4,0
4,0,1
3,5,0
16,5,1
16,6,0
7,3,0
6,8,0
9,8,1
9,10,0
6,15,0
10,11,0
12,11,1
12,13,0
15,10,0
10,14,0
14,13,0
6,7,0
#END
#ANSER
12,11,10,9,8,6,16,5,3,4,0,1,2,3,7,6,15,10,14,13,12,
#QUEST
0,0,0,0,0,0,0,0,0,0,0,0,0,0,0,0,0,0,0,0,0,
#END
