#HITDATA
#VERSION
1
#POINT
500,500
0,500
1000,500
500,1000
500,0
0,0
1000,0
#END
#LINE
5,4,0
4,6,0
6,2,0
2,0,1
0,1,0
1,5,0
0,4,3
0,3,0
3,1,0
3,2,0
1,4,1
2,4,0
#END
#ANSER
0,4,2,0,4,5,1,4,6,2,3,0,1,3,
#QUEST
0,0,1,0,0,0,0,0,0,0,1,0,0,0,
#END
