#HITDATA
#VERSION
1
#POINT
500,500
500,0
0,500
0,0
1000,0
1000,500
1000,1000
500,1000
0,1000
#END
#LINE
3,1,0
1,4,0
4,0,0
0,1,0
1,2,0
2,3,0
2,0,0
0,5,0
5,6,3
6,7,0
0,7,3
2,8,3
8,7,0
7,2,0
0,8,2
0,6,2
5,7,0
#END
#ANSER
8,0,2,8,7,2,8,0,1,2,3,1,4,0,7,5,6,0,5,6,0,7,6,
#QUEST
0,0,0,0,0,0,0,1,0,0,0,0,0,0,0,0,0,1,0,0,0,0,0,
#END
