#HITDATA
#VERSION
1
#POINT
956,44
700,173
827,300
388,740
260,612
132,493
68,551
449,932
507,868
195,677
68,805
195,932
323,805
323,677
132,740
260,868
132,996
4,868
#END
#LINE
0,1,0
1,4,0
0,2,0
2,3,0
13,0,2
6,9,0
7,8,0
6,5,0
5,4,0
9,12,0
12,7,0
12,15,0
11,15,0
16,11,0
17,16,0
9,14,0
14,10,0
10,17,0
14,15,0
11,10,0
11,14,0
4,13,0
13,3,0
3,8,0
10,15,0
4,9,0
3,12,0
9,3,2
12,4,0
#END
#ANSER
4,13,0,1,4,5,6,9,3,13,0,2,3,8,7,12,15,10,17,16,11,10,14,11,15,14,9,12,4,9,3,12,
#QUEST
0,0,0,1,0,0,0,0,0,0,0,0,0,0,1,0,0,0,0,0,0,0,0,0,0,0,0,0,0,0,0,0,
#END
