#HITDATA
#VERSION
1
#POINT
500,380
380,500
500,620
620,500
259,500
138,380
15,500
138,620
500,741
380,862
500,985
620,862
741,500
862,380
985,500
862,620
500,15
380,138
620,138
500,259
#END
#LINE
16,17,0
19,18,0
16,18,0
17,19,0
0,19,3
1,0,0
3,0,0
2,1,0
2,3,0
3,12,0
12,13,0
13,14,0
15,12,0
14,15,0
2,8,0
9,10,0
10,11,0
11,8,0
8,9,0
5,4,0
4,7,0
7,6,0
6,5,0
1,4,0
2,12,0
1,8,0
0,4,0
3,19,0
#END
#ANSER
0,19,3,12,13,14,15,12,2,3,0,1,2,8,11,10,9,8,1,4,7,6,5,4,0,19,17,16,18,19,
#QUEST
0,0,0,0,0,0,0,0,0,0,0,0,0,0,0,0,0,0,0,0,0,0,0,0,0,0,0,0,0,0,
#END
