#HITDATA
#VERSION
1
#POINT
14,14
258,14
258,258
14,258
742,258
742,742
258,742
742,986
986,986
986,742
500,500
500,14
986,14
986,500
742,500
500,258
258,500
14,500
14,986
500,986
500,742
#END
#LINE
0,1,0
1,2,0
2,3,0
3,0,0
2,15,2
15,4,0
4,14,0
14,5,2
5,20,2
20,6,0
6,16,0
16,2,2
15,10,2
10,16,2
16,17,0
17,18,0
18,19,0
19,20,0
20,10,2
10,14,2
14,13,0
13,12,0
12,11,0
11,15,0
5,9,0
9,8,0
8,7,0
7,5,0
#END
#ANSER
20,10,16,2,3,0,1,2,15,11,12,13,14,5,9,8,7,5,20,19,18,17,16,6,20,10,14,4,15,10,16,2,15,10,14,5,20,
#QUEST
0,0,0,0,0,0,0,0,1,0,0,0,0,1,0,0,0,0,0,0,0,1,0,0,0,0,0,0,0,0,0,0,0,0,0,0,0,
#END
