#HITDATA
#VERSION
1
#POINT
11,222
435,363
222,80
222,500
565,222
778,80
778,500
989,363
778,920
500,706
222,920
#END
#LINE
0,2,0
2,1,0
1,3,0
3,0,0
5,4,0
4,6,0
6,7,0
7,5,0
5,6,0
2,3,0
5,2,1
3,6,1
6,8,2
3,9,0
8,10,0
10,9,2
9,8,1
3,10,0
6,9,2
#END
#ANSER
5,2,0,3,6,8,10,9,8,6,9,3,1,2,3,10,9,6,4,5,6,7,5,
#QUEST
0,0,0,1,0,0,0,0,0,0,0,0,0,0,1,0,0,0,0,0,0,0,0,
#END
