#HITDATA
#VERSION
1
#POINT
500,0
0,1000
1000,1000
300,1000
700,1000
150,700
400,700
600,700
850,700
500,400
350,300
650,300
#END
#LINE
0,10,0
10,9,2
9,11,2
11,0,0
10,5,1
5,1,1
1,3,0
3,4,0
4,2,0
8,2,1
11,8,1
9,6,2
6,7,2
7,9,2
5,6,2
6,3,2
7,4,2
7,8,2
#END
#ANSER
6,9,10,0,11,9,11,8,2,4,3,6,7,9,10,5,1,3,6,5,6,9,7,8,7,4,7,6,
#QUEST
0,0,0,0,0,0,0,1,0,0,0,0,0,0,0,1,0,0,0,0,0,0,0,0,0,0,0,0,
#END
