#HITDATA
#VERSION
1
#POINT
30,80
345,80
655,80
970,80
30,920
345,920
655,920
970,920
109,813
109,187
266,187
266,813
424,813
424,187
576,187
576,813
734,813
734,187
891,813
891,187
#END
#LINE
0,1,0
1,2,0
2,3,0
3,19,0
19,18,0
18,7,0
7,6,1
6,5,0
5,4,0
4,8,0
8,9,0
9,0,0
10,1,0
1,13,0
13,12,0
12,5,0
5,11,0
10,11,0
15,6,0
6,16,0
16,17,0
17,2,0
2,14,0
14,15,0
#END
#ANSER
0,1,2,3,19,18,7,6,15,14,2,17,16,6,5,11,10,1,13,12,5,4,8,9,0,
#QUEST
0,0,0,0,0,0,0,0,0,1,0,0,0,0,0,0,0,0,0,0,0,0,0,0,0,
#END
