#HITDATA
#VERSION
1
#POINT
500,708
73,708
927,708
500,292
73,292
927,292
292,73
708,73
292,927
708,927
#END
#LINE
6,4,0
4,3,0
3,6,0
7,3,0
3,5,1
5,7,0
3,0,0
0,1,1
1,4,0
1,8,0
8,0,0
0,9,0
9,2,0
2,0,0
5,2,0
4,0,0
3,1,0
3,2,0
5,0,0
#END
#ANSER
3,6,4,3,1,4,0,1,8,0,9,2,0,5,2,3,5,7,3,0,
#QUEST
0,0,0,0,1,0,0,0,0,0,0,0,0,1,0,0,0,0,0,0,
#END
