#HITDATA
#VERSION
1
#POINT
116,309
171,309
33,420
33,364
199,553
280,553
280,309
420,143
801,143
940,337
940,609
801,720
474,720
89,447
89,829
171,884
994,884
580,636
500,474
526,309
746,309
774,474
309,691
337,500
199,364
636,420
691,553
#END
#LINE
2,3,0
24,4,0
2,13,0
13,14,0
14,15,0
15,16,0
16,11,0
12,11,1
11,10,0
10,9,0
9,8,0
8,7,0
7,6,0
5,23,0
5,4,0
17,11,1
17,18,0
18,19,0
19,20,0
20,21,0
23,6,0
4,22,0
22,12,0
24,3,0
21,26,0
26,25,0
#END
#ANSER
25,26,21,20,19,18,17,11,10,9,8,7,6,23,5,4,22,12,11,16,15,14,13,2,3,24,4,
#QUEST
0,0,0,0,0,0,0,0,0,0,0,0,0,0,0,0,0,0,0,0,0,0,0,0,0,0,0,
#END
