#HITDATA
#VERSION
1
#POINT
500,9
500,991
68,731
932,731
932,269
68,269
241,96
759,96
241,904
759,904
9,500
991,500
#END
#LINE
0,2,1
2,3,1
3,0,1
5,4,1
4,1,1
1,5,1
0,7,0
4,11,0
7,4,0
3,9,0
11,3,0
9,1,0
1,8,0
8,2,0
5,6,0
6,0,0
2,10,0
10,5,0
#END
#ANSER
0,2,3,0,7,4,1,5,4,11,3,9,1,8,2,10,5,6,0,
#QUEST
0,0,0,0,0,0,0,0,0,0,0,0,0,0,0,0,0,0,0,
#END
