#HITDATA
#VERSION
1
#POINT
500,50
500,750
950,750
750,950
250,950
50,750
500,650
825,550
150,650
214,540
325,350
500,425
349,593
413,386
#END
#LINE
0,11,0
11,6,0
6,1,0
1,2,0
2,3,0
3,4,0
4,5,0
5,1,0
1,8,0
8,9,0
9,10,0
10,0,0
0,7,0
7,6,0
9,12,0
12,6,0
6,13,1
9,13,1
10,12,1
11,12,1
11,13,0
13,10,0
#END
#ANSER
6,13,11,12,9,13,10,12,6,7,0,10,9,8,1,2,3,4,5,1,6,11,0,
#QUEST
0,0,0,0,0,0,0,1,0,0,0,0,0,0,1,0,0,0,0,0,0,0,0,
#END
