#HITDATA
#VERSION
1
#POINT
142,20
858,20
263,203
52,356
52,858
174,980
826,980
948,858
948,356
737,203
52,476
52,675
948,476
948,675
356,476
356,675
644,476
644,675
#END
#LINE
0,1,0
1,9,0
9,8,0
8,12,0
13,12,1
13,7,0
7,6,0
6,5,0
5,4,0
4,11,0
11,10,1
10,3,0
3,2,0
2,0,0
14,10,0
16,14,0
12,16,0
11,15,0
14,11,1
12,17,1
17,14,1
10,15,1
15,16,1
16,13,1
17,13,0
15,17,0
#END
#ANSER
0,1,9,8,12,16,14,10,15,16,13,12,17,14,11,15,17,13,7,6,5,4,11,10,3,2,0,
#QUEST
0,0,0,0,0,0,0,0,0,0,0,0,0,0,0,0,0,0,0,0,0,0,0,0,0,0,0,
#END
