#HITDATA
#VERSION
1
#POINT
500,14
500,986
500,500
258,258
742,258
258,742
742,742
500,137
380,258
500,380
620,258
500,620
380,742
500,863
620,742
#END
#LINE
1,6,1
6,2,0
2,4,0
4,0,1
0,7,0
7,9,0
9,2,0
2,11,0
11,13,0
13,1,0
1,5,1
5,2,0
2,3,0
3,0,1
7,8,0
8,9,0
9,10,0
10,7,0
11,12,0
12,13,0
13,14,0
14,11,0
#END
#ANSER
1,6,2,11,14,13,11,12,13,1,5,2,4,0,7,10,9,7,8,9,2,3,0,
#QUEST
0,0,0,0,0,0,0,0,0,0,0,0,0,0,0,0,0,0,0,0,0,0,0,
#END
