#HITDATA
#VERSION
1
#POINT
381,79
500,200
619,79
983,445
500,921
17,445
321,740
679,740
321,381
679,381
500,555
500,381
414,474
586,474
321,555
679,555
500,740
414,647
586,647
#END
#LINE
5,0,0
0,1,0
1,2,0
2,3,0
8,1,1
12,8,1
12,10,0
10,13,0
13,9,1
9,1,1
13,11,0
11,12,0
14,12,1
6,17,0
17,10,0
15,13,1
6,4,0
4,7,0
7,3,0
6,5,0
10,18,0
18,7,0
16,18,0
18,15,1
16,17,0
17,14,1
#END
#ANSER
6,17,14,12,8,1,0,5,6,4,7,18,16,17,10,12,11,13,10,18,15,13,9,1,2,3,7,
#QUEST
0,0,0,0,0,0,0,1,0,0,0,0,0,0,0,0,0,0,0,0,0,0,0,1,0,0,0,
#END
