#HITDATA
#VERSION
1
#POINT
198,225
363,225
637,225
802,225
198,775
363,775
637,775
802,775
363,500
500,995
637,500
500,5
#END
#LINE
8,0,0
1,2,0
8,4,0
0,11,1
0,1,0
5,8,1
5,6,0
8,1,1
3,2,0
11,1,1
5,4,0
4,0,1
3,11,1
7,3,1
6,7,0
7,9,1
4,9,1
11,2,1
2,10,1
10,6,1
9,6,1
9,5,1
10,7,0
10,3,0
#END
#ANSER
4,0,11,1,0,8,4,9,5,8,1,2,3,11,2,10,6,7,3,10,7,9,6,5,4,
#QUEST
0,0,0,0,0,0,0,0,0,0,0,0,0,0,0,0,0,0,0,0,0,0,0,0,0,
#END
