#HITDATA
#VERSION
1
#POINT
80,160
257,91
293,160
328,441
500,612
500,1000
400,1000
362,718
638,788
638,892
920,374
434,374
362,160
399,21
257,21
328,91
#END
#LINE
14,1,0
1,0,0
0,2,0
2,3,0
3,4,0
4,7,0
7,8,0
8,9,0
6,5,0
5,4,0
4,10,0
10,11,0
11,12,0
12,13,0
13,14,0
#END
#ANSER
9,8,7,4,10,11,12,13,14,1,0,2,3,4,5,6,
#QUEST
0,0,0,0,0,0,0,0,0,0,0,0,0,0,0,0,
#END
