#HITDATA
#VERSION
1
#POINT
500,150
150,250
500,350
850,250
950,400
950,550
700,750
1000,700
700,850
300,850
0,700
300,750
#END
#LINE
1,2,0
2,3,0
3,0,0
0,1,0
1,11,1
11,10,0
10,9,0
9,8,0
8,7,0
7,6,0
6,5,0
5,4,0
4,3,0
3,6,1
6,11,0
#END
#ANSER
1,2,3,0,1,11,10,9,8,7,6,5,4,3,6,11,
#QUEST
0,0,0,0,0,0,0,0,0,0,0,0,0,0,0,0,
#END
