#HITDATA
#VERSION
1
#POINT
800,100
500,200
900,400
550,300
800,400
650,550
450,550
500,650
500,800
400,1000
600,900
650,800
300,750
200,800
0,900
300,900
50,600
250,650
#END
#LINE
0,1,0
3,1,0
3,0,0
0,4,0
4,2,0
0,2,0
3,6,0
6,5,0
5,4,0
6,7,0
5,7,0
7,8,0
5,11,0
11,10,0
10,9,0
8,9,0
15,8,0
14,15,0
13,14,0
13,12,0
6,12,0
16,13,0
16,12,0
16,17,0
13,8,0
12,7,0
3,4,0
17,6,0
#END
#ANSER
16,17,6,12,16,13,14,15,8,13,12,7,8,9,10,11,5,7,6,5,4,2,0,4,3,0,1,3,6,
#QUEST
0,0,0,1,0,0,0,0,0,0,1,0,0,0,0,0,0,0,0,0,0,0,0,0,0,0,0,0,0,
#END
