#HITDATA
#VERSION
1
#POINT
500,14
342,179
658,179
658,342
342,342
500,500
342,658
342,821
500,986
658,821
658,658
821,342
986,500
821,658
179,342
14,500
179,658
500,342
500,658
342,500
658,500
#END
#LINE
0,2,0
3,11,0
12,13,0
10,13,0
12,11,1
2,3,0
0,1,1
1,4,0
4,5,0
3,5,0
5,10,0
10,9,0
8,9,1
7,8,0
7,6,0
6,5,0
16,6,0
15,16,1
15,14,0
14,4,0
18,6,0
3,17,0
17,5,0
10,20,0
20,5,0
5,19,0
19,4,0
5,18,0
#END
#ANSER
0,1,4,14,15,16,6,7,8,9,10,13,12,11,3,5,20,10,5,18,6,5,19,4,5,17,3,2,0,
#QUEST
0,0,0,0,0,0,0,0,0,0,0,0,0,0,0,0,0,0,0,0,0,0,0,0,0,0,0,0,0,
#END
