#HITDATA
#VERSION
1
#POINT
100,0
500,0
900,0
900,300
500,300
100,300
100,700
500,700
900,700
900,1000
500,1000
100,1000
#END
#LINE
0,1,1
1,2,1
2,3,1
3,8,1
8,9,1
9,10,1
10,11,1
11,6,1
5,6,1
5,0,1
4,5,1
3,4,1
7,8,1
6,7,1
5,8,0
3,6,0
#END
#ANSER
8,9,10,11,6,7,8,5,6,3,4,5,0,1,2,3,8,
#QUEST
0,0,0,0,1,0,0,0,0,1,0,0,0,0,0,0,0,
#END
