#HAKODATA
#VERSION
1
#POINT
101,101,101,101,101,101,101,101,
101,101,100,100,7,7,101,101,
101,101,2,100,7,3,101,101,
101,0,2,2,3,3,0,101,
101,0,4,4,5,5,0,101,
101,0,4,8,8,5,0,101,
101,101,0,9,8,0,101,101,
101,101,0,9,9,0,101,101,
101,101,101,101,101,200,101,101,
101,101,101,101,101,101,101,101,
#END
#TYPE
0,0,0,0,0,
0,0,0,0,0,
0,0,0,0,0,
0,0,0,0,0,
#END
#COUNT
0,0,0,0,0,
0,0,0,0,0,
0,0,0,0,0,
0,0,0,0,0,
#END
