#HAKODATA
#VERSION
1
#POINT
101,101,101,101,101,101,101,101,
101,101,101,101,101,101,101,101,
101,101,100,0,0,202,101,101,
101,101,2,4,4,4,101,101,
101,101,2,3,3,5,101,101,
101,101,2,3,3,5,101,101,
101,101,6,6,6,5,101,101,
101,101,7,0,0,201,101,101,
101,101,101,101,101,101,101,101,
101,101,101,101,101,101,101,101,
#END
#TYPE
0,0,0,0,0,
0,3,0,0,0,
0,0,0,0,0,
0,0,0,0,0,
#END
#COUNT
0,0,0,0,0,
0,0,0,0,0,
0,0,0,0,0,
0,0,0,0,0,
#END
