#HAKODATA
#VERSION
1
#POINT
101,101,101,101,101,101,101,101,
101,101,202,101,101,202,101,101,
101,0,0,101,101,0,0,101,
0,1,1,100,100,2,2,0,
0,1,3,100,100,4,2,0,
101,5,3,3,4,4,6,101,
101,101,101,201,201,101,101,101,
101,101,101,101,101,101,101,101,
101,101,101,101,101,101,101,101,
101,101,101,101,101,101,101,101,
#END
#TYPE
0,0,0,0,3,
3,0,0,0,0,
0,0,0,0,0,
0,0,0,0,0,
#END
#COUNT
0,0,0,0,0,
0,0,0,0,0,
0,0,0,0,0,
0,0,0,0,0,
#END
