#HAKODATA
#VERSION
1
#POINT
101,101,101,101,101,101,101,101,
101,3,4,12,12,12,0,101,
101,3,100,12,11,13,0,101,
101,0,11,11,11,13,13,101,
101,0,0,9,9,9,13,101,
101,0,7,1,1,9,0,101,
101,0,7,202,1,0,0,101,
101,0,7,202,202,101,101,101,
101,101,7,0,201,101,101,101,
101,101,101,101,101,101,101,101,
#END
#TYPE
1,0,3,3,0,
0,0,0,0,0,
0,0,0,0,0,
0,0,0,0,0,
#END
#COUNT
0,0,0,0,0,
0,0,0,0,0,
0,0,0,0,0,
0,0,0,0,0,
#END
