#HAKODATA
#VERSION
1
#POINT
101,101,101,101,101,101,101,101,
101,15,0,101,101,0,14,101,
101,7,7,11,11,4,4,101,
101,0,100,0,0,2,0,101,
101,100,100,100,2,2,2,101,
101,0,100,3,3,2,0,101,
101,101,101,200,200,101,101,101,
101,101,101,101,101,101,101,101,
101,101,101,101,101,101,101,101,
101,101,101,101,101,101,101,101,
#END
#TYPE
0,0,0,0,0,
0,0,0,0,0,
0,0,0,0,0,
0,0,0,0,0,
#END
#COUNT
0,0,0,0,0,
0,0,0,0,0,
0,0,0,0,0,
0,0,0,0,0,
#END
