#HAKODATA
#VERSION
1
#POINT
101,101,101,101,101,101,101,101,
101,100,0,0,0,101,200,101,
101,0,101,8,8,101,0,101,
101,0,0,2,12,12,12,101,
101,0,2,2,101,6,0,101,
101,5,101,16,101,101,0,101,
101,0,101,0,7,7,7,101,
101,0,0,0,101,15,0,101,
101,9,101,17,0,15,19,101,
101,101,101,101,101,101,101,101,
#END
#TYPE
0,0,0,0,1,
1,0,0,1,0,
0,0,0,0,0,
1,1,0,1,0,
#END
#COUNT
0,0,0,0,0,
0,0,0,0,0,
0,0,0,0,0,
0,0,0,0,0,
#END
