#HAKODATA
#VERSION
1
#POINT
101,101,101,101,101,101,101,101,
101,101,0,101,101,202,101,101,
101,0,4,4,5,5,0,101,
101,0,4,0,0,5,0,101,
101,0,3,0,0,2,0,101,
101,3,3,3,2,2,2,101,
101,6,3,101,101,2,100,101,
101,201,101,101,101,101,101,101,
101,101,101,101,101,101,101,101,
101,101,101,101,101,101,101,101,
#END
#TYPE
0,0,0,0,0,
3,0,0,0,0,
0,0,0,0,0,
0,0,0,0,0,
#END
#COUNT
0,0,0,0,0,
0,0,0,0,0,
0,0,0,0,0,
0,0,0,0,0,
#END
