#HAKODATA
#VERSION
1
#POINT
101,101,101,101,101,101,101,101,
101,101,0,0,0,101,101,101,
101,0,7,0,6,0,101,101,
101,0,7,100,6,0,101,101,
101,0,2,100,4,0,101,101,
101,2,2,3,4,4,101,101,
101,2,3,3,3,4,101,101,
101,101,101,200,101,101,101,101,
101,101,101,101,101,101,101,101,
101,101,101,101,101,101,101,101,
#END
#TYPE
0,0,0,0,0,
0,0,0,0,0,
0,0,0,0,0,
0,0,0,0,0,
#END
#COUNT
0,0,0,0,0,
0,0,0,0,0,
0,0,0,0,0,
0,0,0,0,0,
#END
