#HAKODATA
#VERSION
1
#POINT
101,101,101,101,101,101,101,101,
101,101,200,6,6,0,101,101,
101,11,11,6,0,3,3,101,
101,11,4,4,0,0,3,101,
101,11,11,4,7,3,3,101,
101,101,8,8,7,0,101,101,
101,101,8,8,7,0,101,101,
101,101,0,0,0,100,101,101,
101,101,101,101,101,101,101,101,
101,101,101,101,101,101,101,101,
#END
#TYPE
0,0,0,0,0,
0,0,0,0,0,
0,0,0,0,0,
0,0,0,0,0,
#END
#COUNT
0,0,0,0,0,
0,0,0,0,0,
0,0,0,0,0,
0,0,0,0,0,
#END
