#HAKODATA
#VERSION
1
#POINT
101,101,101,101,101,101,101,101,
101,101,101,101,101,101,101,101,
101,101,101,100,100,101,101,101,
101,101,101,0,0,101,101,101,
101,202,101,0,0,101,202,101,
101,0,0,1,2,0,0,101,
101,101,101,0,0,101,101,101,
101,101,101,201,201,101,101,101,
101,101,101,101,101,101,101,101,
101,101,101,101,101,101,101,101,
#END
#TYPE
3,3,0,0,0,
0,0,0,0,0,
0,0,0,0,0,
0,0,0,0,0,
#END
#COUNT
0,0,0,0,0,
0,0,0,0,0,
0,0,0,0,0,
0,0,0,0,0,
#END
